Chapter 3 Measurements | DRYERproject
…
\(\pi_{TLP}\)

## 
##  Shapiro-Wilk normality test
## 
## data:  Ptlp$Ptlp
## W = 0.96004, p-value = 0.06093

## 
##  Shapiro-Wilk normality test
## 
## data:  logPtlp
## W = 0.97547, p-value = 0.3089

## # A tibble: 21 x 8
##    .y.   group1                group2           p p.adj p.format p.signif method
##    <chr> <chr>                 <chr>        <dbl> <dbl> <chr>    <chr>    <chr> 
##  1 Ptlp  Eperua falcata        Iryanther~ 2.51e-1 1     0.25056  ns       T-test
##  2 Ptlp  Eperua falcata        Jacaranda~ 9.43e-1 1     0.94279  ns       T-test
##  3 Ptlp  Eperua falcata        Pterocarp~ 6.94e-2 0.69  0.06942  ns       T-test
##  4 Ptlp  Eperua falcata        Symphonia~ 6.14e-4 0.012 0.00061  ***      T-test
##  5 Ptlp  Eperua falcata        Tachigali~ 1.01e-1 0.81  0.10142  ns       T-test
##  6 Ptlp  Eperua falcata        Virola su~ 1.54e-3 0.028 0.00154  **       T-test
##  7 Ptlp  Iryanthera hostmannii Jacaranda~ 1.42e-1 0.85  0.14224  ns       T-test
##  8 Ptlp  Iryanthera hostmannii Pterocarp~ 3.77e-1 1     0.37686  ns       T-test
##  9 Ptlp  Iryanthera hostmannii Symphonia~ 6.22e-3 0.1   0.00622  **       T-test
## 10 Ptlp  Iryanthera hostmannii Tachigali~ 3.22e-2 0.39  0.03223  *        T-test
## # ... with 11 more rows
…
3.1.3 Microbial analyses

Weights of samples before sterilization.

## # A tibble: 72 x 11
##    User_Initial_Ba~ Balance Date_Field          Species_Name  Code   Root  Shoot
##    <chr>            <chr>   <dttm>              <chr>        <dbl>  <dbl>  <dbl>
##  1 MB               Mettler 2021-06-07 00:00:00 Iry.hos          1 0.0691 0.476 
##  2 MB               Mettler 2021-06-07 00:00:00 Epe.fal          2 0.458  0.592 
##  3 MB               Mettler 2021-06-07 00:00:00 Jac.cop          3 0.0782 0.134 
##  4 MB               Mettler 2021-06-07 00:00:00 Tac.mel          4 0.178  0.472 
##  5 MB               Mettler 2021-06-07 00:00:00 Sym.glo          5 0.0799 0.127 
##  6 MB               Mettler 2021-06-07 00:00:00 Sym.glo          6 0.153  0.247 
##  7 MB               Mettler 2021-06-07 00:00:00 Iry.hos          7 0.157  0.286 
##  8 MB               Mettler 2021-06-07 00:00:00 Sym.glo          8 0.0809 0.0925
##  9 MB               Mettler 2021-06-21 00:00:00 Iry.hos          9 0.111  0.138 
## 10 MB               Mettler 2021-06-21 00:00:00 Sym.glo         10 0.186  0.376 
## # ... with 62 more rows, and 4 more variables: Leaves <dbl>,
## #   Comment_Weight_Bag <chr>, Comment_Field <lgl>, Comment_Lab <lgl>
