Chapter 5 Microbial analyses | DRYER_Natura
…
            DRYER_Natura

This book is in Open Review. I want your feedback to make the book better for you and other readers. To add your annotation, select some text and then click the  on the pop-up menu. To see the annotations of others, click the  in the upper right hand corner of the page 

Chapter 5 Microbial analyses

Weights of samples before sterilization.

## # A tibble: 72 x 11
##    User_Initial_Ba~ Balance Date_Field          Species_Name  Code   Root  Shoot
##    <chr>            <chr>   <dttm>              <chr>        <dbl>  <dbl>  <dbl>
##  1 MB               Mettler 2021-06-07 00:00:00 Iry.hos          1 0.0691 0.476 
##  2 MB               Mettler 2021-06-07 00:00:00 Epe.fal          2 0.458  0.592 
##  3 MB               Mettler 2021-06-07 00:00:00 Jac.cop          3 0.0782 0.134 
##  4 MB               Mettler 2021-06-07 00:00:00 Tac.mel          4 0.178  0.472 
##  5 MB               Mettler 2021-06-07 00:00:00 Sym.glo          5 0.0799 0.127 
##  6 MB               Mettler 2021-06-07 00:00:00 Sym.glo          6 0.153  0.247 
##  7 MB               Mettler 2021-06-07 00:00:00 Iry.hos          7 0.157  0.286 
##  8 MB               Mettler 2021-06-07 00:00:00 Sym.glo          8 0.0809 0.0925
##  9 MB               Mettler 2021-06-21 00:00:00 Iry.hos          9 0.111  0.138 
## 10 MB               Mettler 2021-06-21 00:00:00 Sym.glo         10 0.186  0.376 
## # ... with 62 more rows, and 4 more variables: Leaves <dbl>,
## #   Comment_Weight_Bag <chr>, Comment_Field <lgl>, Comment_Lab <lgl>
